Se usa Programa arcaico para resolver B&B 

Respuestas en orden (todas)

a) (Ignorar q lo resolvi al azar XD)

1
3
2
4
0
10
9
23
21
-1
-1
-1
11
5

b)

0 1 2 5 6 11 12 23 24 3 4 9 10 21 22

c) Z = 7

X1 = 0
X2 = 1
X3 = 0
X4 = 0


